{
   "results" : 
   [
      {
         "address_components" : 
         [
            {
               "long_name" : "China",
               "short_name" : "CN",
               "types" : 
               [
                  "country",
                  "political"
               ]
            }
         ],
         "formatted_address" : "China",
         "geometry" : 
         {
            "bounds" : 
            {
               "northeast" : 
               {
                  "lat" : 53.56,
                  "lng" : 134.77
               },
               "southwest" : 
               {
                  "lat" : 18.00,
                  "lng" : 73.50
               }
            },
            "location" : 
            {
               "lat" : 35.86,
               "lng" : 104.20
            },
            "location_type" : "APPROXIMATE",
            "viewport" : 
            {
               "northeast" : 
               {
                  "lat" : 53.56,
                  "lng" : 134.78
               },
               "southwest" : 
               {
                  "lat" : 18.00,
                  "lng" : 73.50
               }
            }
         },
         "place_id" : "ChIJwULG5WSOUDERbzafNHyqHZU",
         "types" : 
         [
            "country",
            "political"
         ]
      }
   ],
   "status" : "OK"
}
